Ant-Man
http://www.zone-telechargement.com/films/dvdrip-bdrip/105102-ant-man.html
http://images.zone-telechargement.com/360/http://images.allocine.fr/pictures/15/05/06/16/05/305731.jpg
8.2

5652.0
Action, Science fiction
Peyton Reed
2015
Scott Lang, cambrioleur de haut vol, va devoir apprendre à se comporter en héros et aider son mentor, le Dr Hank Pym, à protéger le secret de son spectaculaire costume d’Ant-Man, afin d’affronter une effroyable menace…
HMjhJZJCp8Y
