La Famille Bélier
http://www.zone-telechargement.com/films/dvdrip-bdrip/81742-la-famille-belier.html
http://images.zone-telechargement.com/360/http://images.allocine.fr/pictures/14/11/28/13/05/237211.jpg
8.6
Qualité BDRiP | FRENCH
5256.0
Comédie
Eric Lartigau
2014
Dans la famille Bélier, tout le monde est sourd sauf Paula, 16 ans. Elle est une interprète indispensable àses parents au quotidien, notamment pour l’exploitation de la ferme familiale. Un jour, poussée par son professeur de musique qui lui a découvert un don pour le chant, elle décide de préparer le concours de Radio France. Un choix de vie qui signifierait pour elle l’éloignement de sa famille et un passage inévitable à l’âge adulte.
tEgw97vpkDM
