Les Gamins
http://www.zone-telechargement.com/films/dvdrip-bdrip/33227-les-gamins-dvdrip.html
http://images.zone-telechargement.com/360/http://images.allocine.fr/medias/nmedia/18/94/97/40/20512713.jpg
8.2
Qualité BDRiP | FRENCH
4860.0
Comédie
Anthony Marciano
2013
Tout juste fiancé, Thomas rencontre son futur beau-père Gilbert, marié depuis 30 ans à Suzanne. Gilbert, désabusé, est convaincu d’être passé à côté de sa vie à cause de son couple. Il dissuade Thomas d’épouser sa fille Lola et le pousse à tout plaquer à ses côtés. Ils se lancent alors dans une nouvelle vie de gamins pleine de péripéties, persuadés que la liberté est ailleurs. Mais à quel prix retrouve t-on ses rêves d’ado ?...</div></div>
th5Q5af2g2Y
