Rush
http://www.zone-telechargement.com/films/dvdrip-bdrip/43614-rush-dvdrip.html
http://images.zone-telechargement.com/360/http://images.allocine.fr/pictures/210/238/21023887_20130801123843604.jpg
9.0
Qualité BDRiP | TRUEFRENCH
8280.0
Drame
Ron Howard
2013
RUSH retrace le passionnant et haletant combat entre deux des plus grands rivaux que l’histoire de la Formule 1 ait jamais connus, celui de James Hunt et Niki Lauda concourant pour les illustres écuries McLaren et Ferrari. Issu de la haute bourgeoisie, charismatique et beau garçon, tout oppose le play-boy anglais James Hunt à Niki Lauda, son adversaire autrichien, réservé et méthodique. RUSH suit la vie frénétique de ces deux pilotes, sur les circuits et en dehors, et retrace la rivalité depuis leurs tout débuts.</div></div>
N4C5qOwHiB8
